EnSight Model Geometry File
part 1 portion only
node id assign
element id assign
extents
 0.00000e+00 4.00000e+00
 0.00000e+00 4.00000e+00
 0.00000e+00 0.00000e+00
part
         1
left bottom
block uniform range with_ghost
         4         4         1
         1         4         1         4         1         1
 0.00000e+00
 0.00000e+00
 0.00000e+00
 1.00000e+00
 1.00000e+00
 0.00000e+00
ghost_flags
         0
         0
         1
         0
         0
         1
         1
         1
         1
part
         2
right bottom
block
         0         0         0
part
         3
left top
block
         0         0         0
part
         4
right top
block
         0         0         0
