Geometry File
Example 2D Material Dataset
node id given
element id given
part
         1
2d-mesh
coordinates
         9
         1
         2
         3
         4
         5
         6
         7
         8
         9
 0.00000e+00
 3.00000e+00
 6.00000e+00
 0.00000e+00
 3.00000e+00
 6.00000e+00
 0.00000e+00
 3.00000e+00
 6.00000e+00
 0.00000e+00
 0.00000e+00
 0.00000e+00
 3.00000e+00
 3.00000e+00
 3.00000e+00
 6.00000e+00
 6.00000e+00
 6.00000e+00
 0.00000e+00
 0.00000e+00
 0.00000e+00
 0.00000e+00
 0.00000e+00
 0.00000e+00
 0.00000e+00
 0.00000e+00
 0.00000e+00
tria3
         2
         0
         1
         1         2         4
         2         5         4
quad4
         3
         2
         3
         4
         4         5         8         7
         8         5         6         9
         2         3         6         5
