#TITLE: table flux_Flux_DOM_OUT0
#COLUMN_TITLES: TIME | cm245 | pu241 | am241 | np237 | u233 | th229
#COLUMN_UNITS: s mol/l mol/l mol/l mol/l mol/l mol/l
2.0300000e+00 0.0000000e+00 0.0000000e+00 0.0000000e+00 0.0000000e+00 0.0000000e+00 0.0000000e+00
4.1836270e+00 0.0000000e+00 0.0000000e+00 0.0000000e+00 0.0000000e+00 0.0000000e+00 0.0000000e+00
6.4684100e+00 0.0000000e+00 0.0000000e+00 0.0000000e+00 0.0000000e+00 0.0000000e+00 0.0000000e+00
8.8923360e+00 0.0000000e+00 0.0000000e+00 0.0000000e+00 0.0000000e+00 0.0000000e+00 0.0000000e+00
1.1463880e+01 0.0000000e+00 0.0000000e+00 0.0000000e+00 0.0000000e+00 0.0000000e+00 0.0000000e+00
1.4192030e+01 0.0000000e+00 0.0000000e+00 0.0000000e+00 0.0000000e+00 0.0000000e+00 0.0000000e+00
1.7086320e+01 0.0000000e+00 0.0000000e+00 0.0000000e+00 0.0000000e+00 0.0000000e+00 0.0000000e+00
2.0156880e+01 0.0000000e+00 0.0000000e+00 0.0000000e+00 0.0000000e+00 0.0000000e+00 0.0000000e+00
2.3414440e+01 0.0000000e+00 0.0000000e+00 0.0000000e+00 0.0000000e+00 0.0000000e+00 0.0000000e+00
2.6870380e+01 0.0000000e+00 0.0000000e+00 0.0000000e+00 0.0000000e+00 0.0000000e+00 0.0000000e+00
3.0536780e+01 0.0000000e+00 0.0000000e+00 0.0000000e+00 0.0000000e+00 0.0000000e+00 0.0000000e+00
3.4426470e+01 0.0000000e+00 0.0000000e+00 0.0000000e+00 0.0000000e+00 0.0000000e+00 0.0000000e+00
3.8553040e+01 0.0000000e+00 0.0000000e+00 0.0000000e+00 0.0000000e+00 0.0000000e+00 0.0000000e+00
4.2930920e+01 0.0000000e+00 0.0000000e+00 0.0000000e+00 0.0000000e+00 0.0000000e+00 0.0000000e+00
4.7575420e+01 0.0000000e+00 0.0000000e+00 0.0000000e+00 0.0000000e+00 0.0000000e+00 0.0000000e+00
5.2502760e+01 0.0000000e+00 0.0000000e+00 0.0000000e+00 0.0000000e+00 0.0000000e+00 0.0000000e+00
5.7730180e+01 0.0000000e+00 0.0000000e+00 0.0000000e+00 0.0000000e+00 0.0000000e+00 0.0000000e+00
6.3275950e+01 0.0000000e+00 0.0000000e+00 0.0000000e+00 0.0000000e+00 0.0000000e+00 0.0000000e+00
6.9159450e+01 0.0000000e+00 0.0000000e+00 0.0000000e+00 0.0000000e+00 0.0000000e+00 0.0000000e+00
7.5401260e+01 0.0000000e+00 0.0000000e+00 -3.0602520e-99 -2.5722910e-99 0.0000000e+00 0.0000000e+00
8.2023200e+01 -4.7487200e-97 -6.9850970e-99 -4.8462970e-96 -4.2929240e-96 -9.7845210e-98 0.0000000e+00
8.9048410e+01 -6.3724310e-94 -9.4887310e-96 -6.3491410e-93 -5.9286220e-93 -1.3447260e-94 -6.7089040e-97
9.6501460e+01 -7.1068770e-91 -1.0705510e-92 -6.9073810e-90 -6.8010610e-90 -1.5373360e-91 -7.7544490e-94
1.0440840e+02 -6.6106490e-88 -1.0067520e-89 -6.2623810e-87 -6.5038470e-87 -1.4672110e-88 -7.4817780e-91
1.1279690e+02 -5.1458990e-85 -7.9180850e-87 -4.7472280e-84 -5.2023190e-84 -1.1729100e-85 -6.0462320e-88
1.2169620e+02 -3.3629500e-82 -5.2251370e-84 -3.0185000e-81 -3.4917970e-81 -7.8790810e-83 -4.1057530e-85
1.3113750e+02 -1.8507810e-79 -2.9019870e-81 -1.6147720e-78 -1.9727050e-78 -4.4612600e-80 -2.3500380e-82
1.4115380e+02 -8.6030580e-77 -1.3605320e-78 -7.2890670e-76 -9.4086320e-76 -2.1354880e-77 -1.1371860e-79
1.5178000e+02 -3.3873910e-74 -5.4000270e-76 -2.7842440e-73 -3.7992280e-73 -8.6665060e-75 -4.6658150e-77
1.6305340e+02 -1.1329600e-71 -1.8196470e-73 -9.0244510e-71 -1.3025460e-70 -2.9903210e-72 -1.6277890e-74
1.7501340e+02 -3.2277430e-69 -5.2202250e-71 -2.4888100e-68 -3.8020740e-68 -8.7966020e-70 -4.8423530e-72
1.8770170e+02 -7.8541550e-67 -1.2784700e-68 -5.8557140e-66 -9.4745880e-66 -2.2121420e-67 -1.2316780e-69
2.0116270e+02 -1.6367500e-64 -2.6801930e-66 -1.1784990e-63 -2.0210670e-63 -4.7684300e-65 -2.6859710e-67
2.1544360e+02 -2.9288900e-62 -4.8225790e-64 -2.0340950e-61 -3.7003170e-61 -8.8339340e-63 -5.0354590e-65
2.3059410e+02 -4.5124120e-60 -7.4676890e-62 -3.0187570e-59 -5.8302020e-59 -1.4102390e-60 -8.1371440e-63
2.4666720e+02 -6.0012300e-58 -9.9778300e-60 -3.8620140e-57 -7.9260560e-57 -1.9450380e-58 -1.1364650e-60
2.6371930e+02 -6.9077060e-56 -1.1533840e-57 -4.2700780e-55 -9.3217400e-55 -2.3237670e-56 -1.3754410e-58
2.8180980e+02 -6.8995740e-54 -1.1564880e-55 -4.0906910e-53 -9.5090500e-53 -2.4110960e-54 -1.4463630e-56
3.0100200e+02 -5.9956480e-52 -1.0085030e-53 -3.4040410e-51 -8.4354630e-51 -2.1783130e-52 -1.3249720e-54
3.2136300e+02 -4.5446870e-50 -7.6686660e-52 -2.4667460e-49 -6.5244190e-49 -1.7180430e-50 -1.0601650e-52
3.4296400e+02 -3.0126830e-48 -5.0980600e-50 -1.5605480e-47 -4.4112720e-47 -1.1859830e-48 -7.4287950e-51
3.6588050e+02 -1.7511000e-46 -2.9707640e-48 -8.6405450e-46 -2.6139780e-45 -7.1841490e-47 -4.5706840e-49
3.9019270e+02 -8.9475070e-45 -1.5214010e-46 -4.1976050e-44 -1.3610750e-43 -3.8286480e-45 -2.4757130e-47
4.1598540e+02 -4.0295080e-43 -6.8653940e-45 -1.7936620e-42 -6.2435180e-42 -1.7997350e-43 -1.1836210e-45
4.4334890e+02 -1.6035580e-41 -2.7369440e-43 -6.7582990e-41 -2.5296930e-40 -7.4814160e-42 -5.0078740e-44
4.7237890e+02 -5.6535750e-40 -9.6644330e-42 -2.2509570e-39 -9.0765450e-39 -2.7573300e-40 -1.8799920e-42
5.0317670e+02 -1.7704720e-38 -3.0305890e-40 -6.6435780e-38 -2.8914080e-37 -9.0331620e-39 -6.2784370e-41
5.3585020e+02 -4.9374510e-37 -8.4614710e-39 -1.7418440e-36 -8.1988730e-36 -2.6372520e-37 -1.8701160e-39
5.7051350e+02 -1.2293690e-35 -2.1089140e-37 -4.0667960e-35 -2.0747870e-34 -6.8791830e-36 -4.9811850e-38
6.0728770e+02 -2.7399570e-34 -4.7042380e-36 -8.4759730e-34 -4.6976780e-33 -1.6073320e-34 -1.1895030e-36
6.4630160e+02 -5.4802440e-33 -9.4158020e-35 -1.5807880e-32 -9.5410680e-32 -3.3726040e-33 -2.5532050e-35
6.8769130e+02 -9.8619000e-32 -1.6954270e-33 -2.6445530e-31 -1.7427100e-30 -6.3711820e-32 -4.9386240e-34
7.3160170e+02 -1.6007800e-30 -2.7533870e-32 -3.9780130e-30 -2.8699520e-29 -1.0863490e-30 -8.6304760e-33
7.7818630e+02 -2.3497120e-29 -4.0432320e-31 -5.3932490e-29 -4.2721700e-28 -1.6761380e-29 -1.3660750e-31
8.2760780e+02 -3.1268440e-28 -5.3822690e-30 -6.6059140e-28 -5.7629560e-27 -2.3460180e-28 -1.9634570e-30
8.8003910e+02 -3.7817870e-27 -6.5113860e-29 -7.3271440e-27 -7.0625040e-26 -2.9862040e-27 -2.5690040e-29
9.3566350e+02 -4.1674660e-26 -7.1769810e-28 -7.3768330e-26 -7.8827310e-25 -3.4654000e-26 -3.0675120e-28
9.9467540e+02 -4.1947790e-25 -7.2252410e-27 -6.7568730e-25 -8.0330680e-24 -3.6754070e-25 -3.3508820e-27
1.0317650e+03 -1.5407940e-24 -2.6541310e-26 -2.3469830e-24 -2.9710890e-23 -1.3914720e-24 -1.2908500e-26
1.0981840e+03 -1.4741050e-23 -2.5395580e-25 -2.0169620e-23 -2.8781720e-22 -1.4087850e-23 -1.3509490e-25
1.1686470e+03 -1.2687960e-22 -2.1860500e-24 -1.5544670e-22 -2.5069060e-21 -1.2828470e-22 -1.2723350e-24
1.2434020e+03 -9.9058180e-22 -1.7068160e-23 -1.0826030e-21 -1.9796070e-20 -1.0596030e-21 -1.0876920e-23
1.3227090e+03 -7.0587610e-21 -1.2163130e-22 -6.8534020e-21 -1.4261800e-19 -7.9895970e-21 -8.4949250e-23
1.4068460e+03 -4.6141950e-20 -7.9511090e-22 -3.9625520e-20 -9.4218840e-19 -5.5277900e-20 -6.0927180e-22
1.4961060e+03 -2.7787520e-19 -4.7884180e-21 -2.1011990e-19 -5.7325340e-18 -3.5245800e-19 -4.0304320e-21
1.5908030e+03 -1.5474650e-18 -2.6666770e-20 -1.0256160e-18 -3.2244150e-17 -2.0789360e-18 -2.4684850e-20
1.6912670e+03 -7.9961110e-18 -1.3779500e-19 -4.6238960e-18 -1.6824380e-16 -1.1382430e-17 -1.4045140e-19
1.7978490e+03 -3.8456830e-17 -6.6272220e-19 -1.9317150e-17 -8.1692130e-16 -5.8029480e-17 -7.4471730e-19
1.9109220e+03 -1.7264850e-16 -2.9752470e-18 -7.5016700e-17 -3.7021280e-15 -2.7627870e-16 -3.6904760e-18
2.0000000e+03 -4.8081470e-16 -8.2858870e-18 -1.8917230e-16 -1.0374350e-14 -8.0024890e-16 -1.0981190e-17
2.1868920e+03 -5.1615850e-15 -8.8950020e-17 -1.4781440e-15 -1.1360470e-13 -9.7805220e-15 -1.4721010e-16
2.3851660e+03 -3.7084700e-14 -6.3908470e-16 -8.2001530e-15 -8.2924680e-13 -7.7886430e-14 -1.2614490e-15
2.5955150e+03 -2.0697640e-13 -3.5668480e-15 -3.6404850e-14 -4.6958710e-12 -4.7684100e-13 -8.2505110e-15
2.8186740e+03 -9.5958770e-13 -1.6536690e-14 -1.3730790e-13 -2.2082900e-11 -2.4126290e-12 -4.4431750e-14
3.0000000e+03 -2.6922760e-12 -4.6396320e-14 -3.3761100e-13 -6.2576370e-11 -7.1774850e-12 -1.3777830e-13
3.3799140e+03 -2.3931060e-11 -4.1240690e-13 -2.1811000e-12 -5.7503190e-10 -7.6344680e-11 -1.6678530e-12
3.7829640e+03 -1.2970260e-10 -2.2351810e-12 -9.7626590e-12 -3.2091050e-09 -4.7577270e-10 -1.1447140e-11
4.2105600e+03 -5.2495810e-10 -9.0466690e-12 -3.4914880e-11 -1.3372230e-08 -2.1855730e-09 -5.7261320e-11
4.6641960e+03 -1.7272280e-09 -2.9765530e-11 -1.0607600e-10 -4.5332790e-08 -8.1150610e-09 -2.3019240e-10
5.0000000e+03 -3.5376780e-09 -6.0965250e-11 -2.0961390e-10 -9.4717490e-08 -1.7943520e-08 -5.3459420e-10
5.6861660e+03 -1.3160930e-08 -2.2680400e-10 -7.4307950e-10 -3.7091920e-07 -8.0548240e-08 -2.7081820e-09
6.4141200e+03 -3.7111820e-08 -6.3955270e-10 -2.0529830e-09 -1.0977960e-06 -2.6818340e-07 -9.9908030e-09
7.1864060e+03 -8.6494480e-08 -1.4905700e-09 -4.7422700e-09 -2.6843800e-06 -7.3094350e-07 -2.9898070e-08
8.0057240e+03 -1.7464370e-07 -3.0096570e-09 -9.5383140e-09 -5.6907530e-06 -1.7177030e-06 -7.6704280e-08
8.8749390e+03 -3.1471000e-07 -5.4234370e-09 -1.7160070e-08 -1.0781980e-05 -3.5943260e-06 -1.7451020e-07
9.7970890e+03 -5.1660410e-07 -8.9027030e-09 -2.8149840e-08 -1.8644270e-05 -6.8463160e-06 -3.6023940e-07
1.0647670e+04 -7.4730470e-07 -1.2878400e-08 -4.0710970e-08 -2.8310900e-05 -1.1319550e-05 -6.3906970e-07
1.2001880e+04 -1.1783040e-06 -2.0305860e-08 -6.4182360e-08 -4.8248260e-05 -2.1903780e-05 -1.3717320e-06
1.3438560e+04 -1.6719220e-06 -2.8812430e-08 -9.1066640e-08 -7.4160600e-05 -3.7939530e-05 -2.6129440e-06
1.4962730e+04 -2.1819430e-06 -3.7601690e-08 -1.1884550e-07 -1.0520560e-04 -6.0338740e-05 -4.5412160e-06
1.6579730e+04 -2.6584070e-06 -4.5812670e-08 -1.4479720e-07 -1.3994380e-04 -8.9639900e-05 -7.3352610e-06
1.8295200e+04 -3.0563970e-06 -5.2671270e-08 -1.6647470e-07 -1.7656480e-04 -1.2594000e-04 -1.1157140e-05
2.0115140e+04 -3.3424840e-06 -5.7601450e-08 -1.8205710e-07 -2.1313330e-04 -1.6888290e-04 -1.6136380e-05
2.2045920e+04 -3.4980890e-06 -6.0283010e-08 -1.9053260e-07 -2.4780990e-04 -2.1769650e-04 -2.2356650e-05
2.4094280e+04 -3.5198480e-06 -6.0657990e-08 -1.9171770e-07 -2.7902090e-04 -2.7126520e-04 -2.9846350e-05
2.6267390e+04 -3.4176670e-06 -5.8897080e-08 -1.8615210e-07 -3.0556610e-04 -3.2822420e-04 -3.8573410e-05
2.8572830e+04 -3.2113310e-06 -5.5341280e-08 -1.7491360e-07 -3.2666700e-04 -3.8706230e-04 -4.8444720e-05
3.1018690e+04 -2.9265620e-06 -5.0433800e-08 -1.5940280e-07 -3.4196610e-04 -4.4622380e-04 -5.9309680e-05
3.3613490e+04 -2.5911900e-06 -4.4654300e-08 -1.4113590e-07 -3.5148700e-04 -5.0420000e-04 -7.0967600e-05
3.6366320e+04 -2.2319640e-06 -3.8463710e-08 -1.2156970e-07 -3.5557140e-04 -5.5960660e-04 -8.3178000e-05
3.9286790e+04 -1.8722090e-06 -3.2264010e-08 -1.0197470e-07 -3.5480290e-04 -6.1124420e-04 -9.5673130e-05
4.2385120e+04 -1.5304290e-06 -2.6374080e-08 -8.3358830e-08 -3.4992780e-04 -6.5814040e-04 -1.0817180e-04
4.5672140e+04 -1.2197620e-06 -2.1020310e-08 -6.6437510e-08 -3.4177990e-04 -6.9957320e-04 -1.2039350e-04
4.9159340e+04 -9.4811920e-07 -1.6339060e-08 -5.1641790e-08 -3.3121460e-04 -7.3507950e-04 -1.3207220e-04
5.2858910e+04 -7.1882850e-07 -1.2387660e-08 -3.9152870e-08 -3.1905420e-04 -7.6444800e-04 -1.4296850e-04
5.6783780e+04 -5.3155000e-07 -9.1602690e-09 -2.8952260e-08 -3.0604760e-04 -7.8770020e-04 -1.5288020e-04
6.0947680e+04 -3.8330380e-07 -6.6055230e-09 -2.0877640e-08 -2.9284130e-04 -8.0506290e-04 -1.6165030e-04
6.5365160e+04 -2.6945970e-07 -4.6436320e-09 -1.4676820e-08 -2.7996450e-04 -8.1693270e-04 -1.6917120e-04
7.0051660e+04 -1.8459510e-07 -3.1811510e-09 -1.0054460e-08 -2.6782320e-04 -8.2383770e-04 -1.7538740e-04
7.5023570e+04 -1.2316960e-07 -2.1225980e-09 -6.7087560e-09 -2.5670390e-04 -8.2639700e-04 -1.8029370e-04
8.0298270e+04 -7.9999130e-08 -1.3786350e-09 -4.3573620e-09 -2.4678390e-04 -8.2528180e-04 -1.8393150e-04
8.5894200e+04 -5.0543930e-08 -8.7103000e-10 -2.7530070e-09 -2.3814520e-04 -8.2117910e-04 -1.8638230e-04
9.1830930e+04 -3.1040140e-08 -5.3491870e-10 -1.6906820e-09 -2.3079210e-04 -8.1475980e-04 -1.8775990e-04
9.8129200e+04 -1.8513320e-08 -3.1904240e-10 -1.0083770e-09 -2.2466920e-04 -8.0665300e-04 -1.8820100e-04
1.0370470e+05 -1.1672750e-08 -2.0115800e-10 -6.3578700e-10 -2.2039390e-04 -7.9897400e-04 -1.8796800e-04
1.1145070e+05 -6.2549090e-09 -1.0779160e-10 -3.4069000e-10 -2.1592660e-04 -7.8819520e-04 -1.8695240e-04
1.1966860e+05 -3.2380750e-09 -5.5802150e-11 -1.7637020e-10 -2.1252480e-04 -7.7720280e-04 -1.8536720e-04
1.2838680e+05 -1.6176680e-09 -2.7877470e-11 -8.8110510e-11 -2.0999360e-04 -7.6641080e-04 -1.8340080e-04
1.3763600e+05 -7.7895460e-10 -1.3423820e-11 -4.2427800e-11 -2.0815350e-04 -7.5611130e-04 -1.8121420e-04
1.4744850e+05 -3.6108310e-10 -6.2225900e-12 -1.9667330e-11 -2.0684690e-04 -7.4648980e-04 -1.7893780e-04
1.5785860e+05 -1.6091630e-10 -2.7730900e-12 -8.7647260e-12 -1.9985940e-04 -7.3260930e-04 -1.7614270e-04
1.6890270e+05 -6.8847340e-11 -1.1864550e-12 -3.7499500e-12 -1.7457750e-04 -6.9720050e-04 -1.7048820e-04
1.8061930e+05 -2.8237420e-11 -4.8661910e-13 -1.5380250e-12 -1.3487560e-04 -6.3042230e-04 -1.5941720e-04
1.9304950e+05 -1.1086000e-11 -1.9104640e-13 -6.0382780e-13 -9.3883030e-05 -5.3942940e-04 -1.4254300e-04
2.0623670e+05 -4.1592050e-12 -7.1676100e-14 -2.2654200e-13 -6.0273130e-05 -4.3888390e-04 -1.2159660e-04
2.2022690e+05 -1.4900350e-12 -2.5677950e-14 -8.1158620e-14 -3.6316660e-05 -3.4179900e-04 -9.9144240e-05
2.3506920e+05 -5.0897660e-13 -8.7712570e-15 -2.7722740e-14 -2.0768060e-05 -2.5627660e-04 -7.7513420e-05
2.5081540e+05 -1.6467570e-13 -2.8378770e-15 -8.9694910e-15 -1.1348190e-05 -1.8579550e-04 -5.8296120e-05
2.6752050e+05 -5.0185130e-14 -8.6484660e-16 -2.7334640e-15 -5.9479150e-06 -1.3062630e-04 -4.2288850e-05
2.8524300e+05 -1.4376140e-14 -2.4774580e-16 -7.8303390e-16 -2.9960960e-06 -8.9229450e-05 -2.9650820e-05
3.0404470e+05 -3.8691760e-15 -6.6677990e-17 -2.1074480e-16 -1.4514740e-06 -5.9282050e-05 -2.0124290e-05
3.2387070e+05 -9.8389490e-16 -1.6955590e-17 -5.3590410e-17 -6.7880940e-07 -3.8415060e-05 -1.3265190e-05
3.4387070e+05 -2.4715220e-16 -4.2592040e-18 -1.3461790e-17 -3.1526730e-07 -2.4724460e-05 -8.6498810e-06
3.6387070e+05 -6.1937770e-17 -1.0673810e-18 -3.3736030e-18 -1.4631010e-07 -1.5876270e-05 -5.6094570e-06
3.8387070e+05 -1.5499040e-17 -2.6709680e-19 -8.4419550e-19 -6.7870550e-08 -1.0178290e-05 -3.6230940e-06
4.0387070e+05 -3.8749570e-18 -6.6777630e-20 -2.1105970e-19 -3.1476210e-08 -6.5179970e-06 -2.3331740e-06
4.2387070e+05 -9.6827960e-19 -1.6686480e-20 -5.2739880e-20 -1.4595670e-08 -4.1706990e-06 -1.4992040e-06
4.4387070e+05 -2.4188050e-19 -4.1683570e-21 -1.3174650e-20 -6.7675620e-09 -2.6672160e-06 -9.6176370e-07
4.6387070e+05 -6.0411970e-20 -1.0410870e-21 -3.2904960e-21 -3.1377790e-09 -1.7050290e-06 -6.1624600e-07
4.8387070e+05 -1.5086890e-20 -2.5999430e-22 -8.2174690e-22 -1.4547920e-09 -1.0896310e-06 -3.9450610e-07
5.0387070e+05 -3.7674720e-21 -6.4925310e-23 -2.0520520e-22 -6.7448200e-10 -6.9620310e-07 -2.5238760e-07
5.2387070e+05 -9.4077310e-22 -1.6212460e-23 -5.1241670e-23 -3.1270650e-10 -4.4476110e-07 -1.6138820e-07
5.4387070e+05 -2.3491510e-22 -4.0483210e-24 -1.2795260e-23 -1.4498070e-10 -2.8409940e-07 -1.0316200e-07
5.6387070e+05 -5.8658590e-23 -1.0108710e-24 -3.1949930e-24 -6.7222260e-11 -1.8145940e-07 -6.5925560e-08
5.8387070e+05 -1.4647020e-23 -2.5241400e-25 -7.9778830e-25 -3.1173320e-11 -1.1589470e-07 -4.2121480e-08
6.0387070e+05 -3.6573400e-24 -6.3027390e-26 -1.9920660e-25 -1.4455450e-11 -7.4016700e-08 -2.6908620e-08
6.2387070e+05 -9.1323010e-25 -1.5737810e-26 -4.9741460e-26 -6.7030840e-12 -4.7269700e-08 -1.7188330e-08
6.4387070e+05 -2.2803140e-25 -3.9296930e-27 -1.2420320e-26 -3.1100660e-12 -3.0187460e-08 -1.0978510e-08
6.6387070e+05 -5.6938830e-26 -9.8123410e-28 -3.1013220e-27 -1.4502820e-12 -1.9278070e-08 -7.0117730e-09
6.8387070e+05 -1.4217470e-26 -2.4501150e-28 -7.7439170e-28 -6.7695840e-13 -1.2311080e-08 -4.4781150e-09
7.0387070e+05 -3.5500630e-27 -6.1178680e-29 -1.9336340e-28 -3.1215990e-13 -7.8618470e-09 -2.8598960e-09
7.2387080e+05 -8.8644060e-28 -1.5276140e-29 -4.8282300e-29 -1.4218890e-13 -5.0205390e-09 -1.8263910e-09
7.4387080e+05 -2.2134170e-28 -3.8144090e-30 -1.2055950e-29 -6.4265040e-14 -3.2060620e-09 -1.1663530e-09
7.6387080e+05 -5.5268380e-29 -9.5244690e-31 -3.0103370e-30 -2.8922100e-14 -2.0473490e-09 -7.4484110e-10
7.8387080e+05 -1.3800360e-29 -2.3782330e-31 -7.5167240e-31 -1.2987210e-14 -1.3074070e-09 -4.7564810e-10
8.0387080e+05 -3.4459090e-30 -5.9383780e-32 -1.8769040e-31 -5.8251040e-15 -8.3489200e-10 -3.0374480e-10
8.2387080e+05 -8.6043350e-31 -1.4827960e-32 -4.6865760e-32 -2.6111780e-15 -5.3316480e-10 -1.9397770e-10
8.4387080e+05 -2.1484780e-31 -3.7024980e-33 -1.1702240e-32 -1.1701430e-15 -3.4047320e-10 -1.2386830e-10
8.6387080e+05 -5.3646860e-32 -9.2450310e-34 -2.9220160e-33 -5.2429380e-16 -2.1742810e-10 -7.9101840e-11
8.8387080e+05 -1.3395470e-32 -2.3084570e-34 -7.2961910e-34 -2.3489650e-16 -1.3883610e-10 -5.0517550e-11
9.0387080e+05 -3.3448090e-33 -5.7641520e-35 -1.8218380e-34 -1.0523520e-16 -8.8650700e-11 -3.2252550e-11
9.2387080e+05 -8.3518920e-34 -1.4392920e-35 -4.5490760e-35 -4.7145100e-17 -5.6606180e-11 -2.0593950e-11
9.4387080e+05 -2.0854430e-34 -3.5938700e-36 -1.1358910e-35 -2.1120660e-17 -3.6147120e-11 -1.3158930e-11
9.6387080e+05 -5.2072910e-35 -8.9737900e-37 -2.8362870e-36 -9.4618550e-18 -2.3097700e-11 -8.4078010e-12
9.8387080e+05 -1.3002460e-35 -2.2407290e-37 -7.0821270e-37 -4.2388080e-18 -1.4751660e-11 -5.3714050e-12
1.0000000e+06 -4.0265960e-36 -6.9390830e-38 -2.1931900e-37 -2.1778470e-18 -1.0223460e-11 -3.7280070e-12

